{
  "version": 1,
  "default": "common/tax-abstract.html",
  "name": "Additional Information On Non-Resident Corporations In Canada",
  "inline": true,
  "unique": true,
  "usesReadyToPrint": true,
  "id": "com.caseware.ca.tax.ca.corp.t2s97",
  "js": ["t2s97-formdata.js", "t2s97-calculations.js", "t2s97-diagnostics.js", "t2s97-tables.js"]
}