{
  "version": 1,
  "default": "common/tax-abstract.html",
  "name": "Non-Deductible Automobile Leasing and Other Expenses",
  "inline": true,
  "unique": true,
  "usesReadyToPrint": true,
  "id": "com.caseware.ca.tax.ca.corp.automobileLeasing",
  "js": ["automobileLeasing-formdata.js", "automobileLeasing-calculations.js", "automobileLeasing-diagnostics.js", "automobileLeasing-tables.js"]
}
