{
  "version": 1,
  "default": "common/tax-abstract.html",
  "name": "Manitoba Neighbourhoods Alive! Tax Credit ",
  "inline": true,
  "unique": true,
  "usesReadyToPrint": true,
  "id": "com.caseware.ca.tax.ca.corp.t2s391",
  "js": ["t2s391-formdata.js", "t2s391-calculations.js", "t2s391-diagnostics.js", "t2s391-tables.js"]
}
