{
  "version": 1,
  "default": "common/tax-abstract.html",
  "name": "Agreement Among Associated CCPCs to Allocate Business Limit",
  "inline": true,
  "unique": true,
  "usesReadyToPrint": true,
  "id": "com.caseware.ca.tax.ca.corp.t2s23",
  "js": ["t2s23-formdata.js", "t2s23-calculations.js", "t2s23-diagnostics.js", "t2s23-tables.js"]
}
