{
  "version": 1,
  "default": "common/tax-abstract.html",
  "name": "Provincial or Territorial Foreign Income Tax Credits and Federal Logging Tax Credit",
  "inline": true,
  "unique": true,
  "usesReadyToPrint": true,
  "id": "com.caseware.ca.tax.ca.corp.t2s21w",
  "js": ["t2s21w-formdata.js", "t2s21w-calculations.js", "t2s21w-diagnostics.js", "t2s21w-tables.js"]
}
