{
  "version": 1,
  "default": "common/tax-abstract.html",
  "name": "S10 Cumulative Eligible Capital Deduction Workchart",
  "inline": true,
  "unique": true,
  "usesReadyToPrint": true,
  "id": "com.caseware.ca.tax.ca.corp.t2s10w",
  "js": ["t2s10w-formdata.js", "t2s10w-calculations.js", "t2s10w-diagnostics.js", "t2s10w-tables.js"]
}
