{
  "version": 1,
  "default": "common/tax-abstract.html",
  "name": "T2A1 - Alberta Small Business Deduction",
  "inline": true,
  "unique": true,
  "usesReadyToPrint": true,
  "id": "com.caseware.ca.tax.ca.corp.t2a1",
  "js": ["t2a1-formdata.js", "t2a1-calculations.js", "t2a1-diagnostics.js", "t2a1-tables.js"]
}
