{
  "version": 1,
  "default": "common/tax-abstract.html",
  "name": "Notes Detail",
  "inline": true,
  "unique": true,
  "usesReadyToPrint": true,
  "id": "com.caseware.ca.tax.ca.corp.t2s141s",
  "js": ["t2s141s-formdata.js", "t2s141s-calculations.js", "t2s141s-diagnostics.js"]
}