{
  "version": 1,
  "default": "common/tax-abstract.html",
  "name": "Third Party Payments for Scientific Research and Experimental Development (SR&ED)",
  "inline": true,
  "unique": true,
  "usesReadyToPrint": true,
  "id": "com.caseware.ca.tax.ca.corp.t2s1263",
  "js": ["t2s1263-formdata.js", "t2s1263-calculations.js", "t2s1263-diagnostics.js", "t2s1263-tables.js", "t2s1263-importcalcs.js"]
}
