{
  "version": 1,
  "default": "common/tax-abstract.html",
  "name": "Optimization Workchart",
  "inline": true,
  "unique": true,
  "usesReadyToPrint": true,
  "id": "com.caseware.ca.tax.ca.corp.optimizationWorkchart",
  "js": ["optimizationWorkchart-formdata.js", "optimizationWorkchart-calculations.js", "optimizationWorkchart-tables.js", "optimizationWorkchart-diagnostics.js"]
}
