{
 "version": 1,
 "default": "common/tax-abstract.html",
 "name": "Northwest Territories Investment Tax Credit",
 "inline": true,
 "unique": true,
 "usesReadyToPrint": true,
 "id": "com.caseware.ca.tax.ca.corp.t2s460",
 "js": ["t2s460-formdata.js", "t2s460-calculations.js", "t2s460-diagnostics.js", "t2s460-tables.js"]
}
