{
  "version": 1,
  "default": "common/tax-abstract.html",
  "name": "Non-Deductible Automobile Interest and Other Expenses",
  "inline": true,
  "unique": true,
  "usesReadyToPrint": true,
  "id": "com.caseware.ca.tax.ca.corp.automobileInterest",
  "js": ["automobileInterest-formdata.js", "automobileInterest-calculations.js", "automobileInterest-diagnostics.js", "automobileInterest-tables.js"]
}
