{
  "version": 1,
  "default": "common/tax-abstract.html",
  "name": "Newfoundland and Labrador Additional Certificate Numbers for the Film and Video Industry Tax Credit",
  "inline": true,
  "unique": true,
  "usesReadyToPrint": true,
  "id": "com.caseware.ca.tax.ca.corp.t2s302",
  "js": ["t2s302-formdata.js", "t2s302-calculations.js", "t2s302-diagnostics.js", "t2s302-tables.js"]
}
