{
  "version": 1,
  "default": "common/tax-abstract.html",
  "name": "Payments to Non-Residents",
  "inline": true,
  "unique": true,
  "usesReadyToPrint": true,
  "id": "com.caseware.ca.tax.ca.corp.t2s29",
  "js": ["t2s29-formdata.js", "t2s29-calculations.js", "t2s29-diagnostics.js", "t2s29-tables.js"]
}
