{
  "version": 1,
  "default": "common/tax-abstract.html",
  "name": "NonProfit Organization (NPO) Information Return",
  "inline": true,
  "unique": true,
  "usesReadyToPrint": true,
  "id": "com.caseware.ca.tax.ca.corp.t1044",
  "js": ["t1044-formdata.js", "t1044-calculations.js", "t1044-diagnostics.js", "t1044-tables.js"]
}
