{
  "version": 1,
  "default": "common/tax-abstract.html",
  "name": "Safe Income Scenario Summary",
  "inline": true,
  "unique": true,
  "usesReadyToPrint": true,
  "id": "com.caseware.ca.tax.ca.corp.safeIncomeWorkchartS",
  "js": ["safeIncomeWorkchartS-formdata.js", "safeIncomeWorkchartS-calculations.js", "safeIncomeWorkchartS-diagnostics.js", "safeIncomeWorkchartS-tables.js"]
}
