{
  "version": 1,
  "default": "common/tax-abstract.html",
  "name": "New Brunswick Small Business Investor Tax Credit",
  "inline": true,
  "unique": true,
  "usesReadyToPrint": true,
  "id": "com.caseware.ca.tax.ca.corp.t2s367",
  "js": ["t2s367-formdata.js", "t2s367-calculations.js", "t2s367-diagnostics.js", "t2s367-tables.js"]
}
