{
  "version": 1,
  "default": "common/tax-abstract.html",
  "name": "Line 996 Amended Tax Return Description of Changes",
  "inline": true,
  "unique": true,
  "usesReadyToPrint": true,
  "id": "com.caseware.ca.tax.ca.corp.l996",
  "js": ["l996-formdata.js", "l996-calculations.js", "l996-diagnostics.js"]
}