{
  "version": 1,
  "default": "common/tax-abstract.html",
  "name": "Transactions With Shareholders, Officers, or Employees",
  "inline": true,
  "unique": true,
  "usesReadyToPrint": true,
  "id": "com.caseware.ca.tax.ca.corp.t2s11",
  "js": ["t2s11-formdata.js", "t2s11-calculations.js", "t2s11-diagnostics.js", "t2s11-tables.js"]
}
