{
  "version": 1,
  "default": "common/tax-abstract.html",
  "name": "Request for Capital Dividend Account Balance Verification",
  "inline": true,
  "unique": true,
  "usesReadyToPrint": true,
  "id": "com.caseware.ca.tax.ca.corp.t2s89",
  "js": ["t2s89-formdata.js", "t2s89-calculations.js", "t2s89-diagnostics.js", "t2s89-tables.js"]
}
