{
  "version": 1,
  "default": "common/tax-abstract.html",
  "name": "Direct Deposit Request for Businesses",
  "inline": true,
  "unique": true,
  "usesReadyToPrint": true,
  "id": "com.caseware.ca.tax.ca.corp.rc366",
  "js": ["rc366-formdata.js", "rc366-calculations.js", "rc366-diagnostics.js", "rc366-tables.js"]
}
