{
  "version": 1,
  "default": "common/tax-abstract.html",
  "name": "Ontario Director/Officer Information",
  "inline": true,
  "unique": true,
  "usesReadyToPrint": true,
  "id": "com.caseware.ca.tax.ca.corp.t2s547",
  "js": ["t2s547-formdata.js", "t2s547-calculations.js", "t2s547-diagnostics.js", "t2s547-tables.js"]
}