{
  "version": 1,
  "default": "common/tax-abstract.html",
  "name": "Rates Table - Newfoundland and Labrador",
  "inline": true,
  "unique": true,
  "usesReadyToPrint": true,
  "id": "com.caseware.ca.tax.ca.corp.ratesNl",
  "js": ["ratesNl-formdata.js", "ratesNl-calculations.js", "ratesNl-diagnostics.js"]
}