{
  "version": 1,
  "default": "common/tax-abstract.html",
  "name": "S13 Reserves Workchart",
  "inline": true,
  "unique": true,
  "usesReadyToPrint": true,
  "id": "com.caseware.ca.tax.ca.corp.t2s13w",
  "js": ["t2s13w-formdata.js", "t2s13w-calculations.js", "t2s13w-diagnostics.js", "t2s13w-tables.js"]
}
