{
  "version": 1,
  "default": "common/tax-abstract.html",
  "name": "Election for a Capital Dividend Under Subsection 83(2)",
  "inline": true,
  "unique": true,
  "usesReadyToPrint": true,
  "id": "com.caseware.ca.tax.ca.corp.t2054",
  "js": ["t2054-formdata.js", "t2054-calculations.js", "t2054-diagnostics.js", "t2054-tables.js"]
}
