<?xml version="1.0" encoding="UTF-8" standalone="no"?>
<svg xmlns="http://www.w3.org/2000/svg" viewBox="0 0 50 50">
  <path
     d="M 24.818003,0.65287502 20.902709,7.9553938 c -0.444273,0.793662 -1.240277,0.720048 -2.036281,0.276763 L 16.03186,6.7643618 18.144507,17.980877 c 0.444273,2.049193 -0.981154,2.049193 -1.68461,1.163157 l -4.946871,-5.53795 -0.803116,2.812303 c -0.09261,0.369316 -0.499819,0.757213 -1.1107211,0.66484 L 3.3438124,15.76802 4.9868268,21.741394 c 0.351726,1.329143 0.6260798,1.879454 -0.355081,2.230009 l -2.2296181,1.047914 10.7682253,8.746726 c 0.426212,0.330722 0.641552,0.92588 0.489818,1.464755 l -0.94245,3.092818 c 3.707659,-0.427385 7.029779,-1.070375 10.739316,-1.466373 0.327476,-0.03496 0.875711,0.505474 0.873462,0.884973 l -0.491259,11.330864 1.802682,0 -0.283763,-11.306564 c -0.0023,-0.3795 0.495102,-0.944231 0.822578,-0.909273 3.709537,0.396 7.031661,1.038988 10.73932,1.466373 L 35.97761,35.230798 c -0.151735,-0.538875 0.0636,-1.134033 0.489816,-1.464755 l 10.768226,-8.746726 -2.22962,-1.047914 c -0.981159,-0.350555 -0.706811,-0.900866 -0.355079,-2.230009 l 1.643018,-5.973374 -6.255382,1.315207 c -0.610901,0.09237 -1.018108,-0.295524 -1.110724,-0.66484 l -0.803115,-2.812303 -4.946869,5.53795 c -0.703458,0.886036 -2.128887,0.886036 -1.684614,-1.163157 l 2.112644,-11.2165152 -2.834562,1.467795 c -0.796024,0.443285 -1.592008,0.516899 -2.036283,-0.276763"
     id="path8"
     connector-curvature="0"
     style="fill:#ff0000" />
</svg>
