{
  "version": 1,
  "default": "common/tax-abstract.html",
  "name": "Form Flagger Workchart",
  "inline": true,
  "unique": true,
  "usesReadyToPrint": true,
  "id": "com.caseware.ca.tax.ca.corp.flagFormsWorkchart",
  "js": ["flagFormsWorkchart-formdata.js", "flagFormsWorkchart-calculations.js", "flagFormsWorkchart-tables.js", "flagFormsWorkchart-diagnostics.js"]
}
