{
  "version": 1,
  "default": "common/tax-abstract.html",
  "name": "New Brunswick Additional Certificate Numbers for the New Brunswick Film Tax Credit",
  "inline": true,
  "unique": true,
  "usesReadyToPrint": true,
  "id": "com.caseware.ca.tax.ca.corp.t2s365",
  "js": ["t2s365-formdata.js", "t2s365-calculations.js", "t2s365-diagnostics.js", "t2s365-tables.js"]
}
