{
  "version": 1,
  "default": "common/tax-abstract.html",
  "name": "S37 - Calculation of Unused Surtax Credit",
  "inline": true,
  "unique": true,
  "usesReadyToPrint": true,
  "id": "com.caseware.ca.tax.ca.corp.t2s37",
  "js": ["t2s37-formdata.js", "t2s37-calculations.js", "t2s37-diagnostics.js", "t2s37-tables.js"]
}