{
  "version": 1,
  "default": "common/tax-abstract.html",
  "name": "Nova Scotia Tax Reduction for New Small Businesses",
  "inline": true,
  "unique": true,
  "usesReadyToPrint": true,
  "id": "com.caseware.ca.tax.ca.corp.t2s341",
  "js": ["t2s341-formdata.js", "t2s341-calculations.js", "t2s341-diagnostics.js", "t2s341-tables.js"]
}
