{
  "version": 1,
  "default": "common/tax-abstract.html",
  "name": "Nova Scotia Tax on Large Corporations Agreement Among Related Corporations",
  "inline": true,
  "unique": true,
  "usesReadyToPrint": true,
  "id": "com.caseware.ca.tax.ca.corp.t2s343",
  "js": ["t2s343-formdata.js", "t2s343-calculations.js", "t2s343-diagnostics.js", "t2s343-tables.js"]
}
