{
  "version": 1,
  "default": "common/tax-abstract.html",
  "name": "Manitoba Cooperative Development Tax Credit",
  "inline": true,
  "unique": true,
  "usesReadyToPrint": true,
  "id": "com.caseware.ca.tax.ca.corp.t2s390",
  "js": ["t2s390-formdata.js", "t2s390-calculations.js", "t2s390-diagnostics.js", "t2s390-tables.js"]
}
