{
"version": 1,
      "default": "common/tax-abstract.html",
      "name": "T2A14 - Alberta Cumulative Eligible Capital Deduction",
      "inline": true,
      "unique": true,
      "usesReadyToPrint": true,
      "id": "com.caseware.ca.tax.ca.corp.t2a14",
      "js": ["t2a14-formdata.js", "t2a14-calculations.js", "t2a14-diagnostics.js", "t2a14-tables.js"]
}
