{
  "version": 1,
  "default": "common/tax-abstract.html",
  "name": "Ontario Corp Tax Calculation",
  "inline": true,
  "unique": true,
  "usesReadyToPrint": true,
  "id": "com.caseware.ca.tax.ca.corp.t2s500",
  "js": ["t2s500-formdata.js", "t2s500-calculations.js", "t2s500-diagnostics.js", "t2s500-tables.js"]
}
