{
  "version": 1,
  "default": "common/tax-abstract.html",
  "name": "T2A3 - Alberta Other Tax Deductions and Credits",
  "inline": true,
  "unique": true,
  "usesReadyToPrint": true,
  "id": "com.caseware.ca.tax.ca.corp.t2a3",
  "js": ["t2a3-formdata.js", "t2a3-calculations.js", "t2a3-diagnostics.js", "t2a3-tables.js"]
}
