{
  "version": 1,
  "default": "common/tax-abstract.html",
  "name": "Newfoundland and Labrador Resort Property Investment Tax Credit",
  "inline": true,
  "unique": true,
  "usesReadyToPrint": true,
  "id": "com.caseware.ca.tax.ca.corp.t2s304",
  "js": ["t2s304-formdata.js", "t2s304-calculations.js", "t2s304-diagnostics.js", "t2s304-tables.js"]
}
