{
  "version": 1,
  "default": "common/tax-abstract.html",
  "name": "T2 Corporation Income Tax Return",
  "inline": true,
  "unique": true,
  "usesReadyToPrint": true,
  "id": "com.caseware.ca.tax.ca.corp.t2j",
  "js": ["t2j-formdata.js", "t2j-calculations.js", "t2j-diagnostics.js", "t2j-tables.js"]
}
