{
  "version": 1,
  "default": "common/tax-abstract.html",
  "name": "5 Years Comparative Workchart",
  "inline": true,
  "unique": true,
  "usesReadyToPrint": true,
  "id": "com.caseware.ca.tax.ca.corp.com5Workchart",
  "js": [
    "com5Workchart-formdata.js",
    "com5Workchart-calculations.js",
    "com5Workchart-tables.js"
  ]
}
