{
  "version": 1,
  "default": "common/tax-abstract.html",
  "name": "Investment in Foreign Affiliates",
  "inline": true,
  "unique": true,
  "usesReadyToPrint": true,
  "id": "com.caseware.ca.tax.ca.corp.t2s25",
  "js": ["t2s25-formdata.js", "t2s25-calculations.js", "t2s25-diagnostics.js", "t2s25-tables.js"]
}
