{
  "version": 1,
  "default": "common/tax-abstract.html",
  "name": "S8 Fixed Assets Listing (for CCA)",
  "inline": true,
  "unique": true,
  "usesReadyToPrint": true,
  "id": "com.caseware.ca.tax.ca.corp.t2s8add",
  "js": ["t2s8add-formdata.js", "t2s8add-calculations.js", "t2s8add-diagnostics.js", "t2s8add-tables.js"]
}
