{
  "version": 1,
  "default": "common/tax-abstract.html",
  "name": "Yukon Manufacturing and processing profits tax credit",
  "inline": true,
  "unique": true,
  "usesReadyToPrint": true,
  "id": "com.caseware.ca.tax.ca.corp.t2s440",
  "js": ["t2s440-formdata.js", "t2s440-calculations.js", "t2s440-diagnostics.js", "t2s440-tables.js"]
}
