{
  "version": 1,
  "default": "common/tax-abstract.html",
  "name": "Ontario Book Publishing Tax Credit",
  "inline": true,
  "unique": true,
  "usesReadyToPrint": true,
  "id": "com.caseware.ca.tax.ca.corp.t2s564",
  "js": ["t2s564-formdata.js", "t2s564-calculations.js", "t2s564-diagnostics.js", "t2s564-tables.js"]
}
