{
  "version": 1,
  "default": "common/tax-abstract.html",
  "name": "British Columbia Mining Exploration Tax Credit",
  "inline": true,
  "unique": true,
  "usesReadyToPrint": true,
  "id": "com.caseware.ca.tax.ca.corp.t2s421",
  "js": ["t2s421-formdata.js", "t2s421-calculations.js", "t2s421-diagnostics.js", "t2s421-tables.js"]
}
