{
  "version": 1,
  "default": "common/tax-abstract.html",
  "name": "Taxation Year History",
  "inline": true,
  "unique": true,
  "usesReadyToPrint": true,
  "id": "com.caseware.ca.tax.ca.corp.tyh",
  "js": ["tyh-formdata.js", "tyh-calculations.js", "tyh-diagnostics.js", "tyh-tables.js", "tyh-importcalcs.js"]
}
