{
  "version": 1,
  "default": "common/tax-abstract.html",
  "name": "Ontario Business-Research Institute Tax Credit",
  "inline": true,
  "unique": true,
  "usesReadyToPrint": true,
  "id": "com.caseware.ca.tax.ca.corp.t2s568",
  "js": ["t2s568-formdata.js", "t2s568-calculations.js", "t2s568-diagnostics.js", "t2s568-tables.js"]
}
