{
  "version": 1,
  "default": "common/tax-abstract.html",
  "name": "Additional Certificate Numbers for the Nova Scotia Digital Media Tax Credit",
  "inline": true,
  "unique": true,
  "usesReadyToPrint": true,
  "id": "com.caseware.ca.tax.ca.corp.t2s347",
  "js": ["t2s347-formdata.js", "t2s347-calculations.js", "t2s347-diagnostics.js", "t2s347-tables.js"]
}
