{
  "version": 1,
  "default": "common/tax-abstract.html",
  "name": "Slip Information Return of Non-Arm's Length Transactions with Non-Residents",
  "inline": true,
  "unique": true,
  "usesReadyToPrint": true,
  "id": "com.caseware.ca.tax.ca.corp.t106s",
  "js": ["t106s-formdata.js", "t106s-calculations.js", "t106s-diagnostics.js", "t106s-tables.js"]
}