{
  "t106s": {
    "number": "106Slip",
    "data": [
      {
        "xmlTag": "t106:SlipSequenceIdentifier",
        "num": "102",
        "info": "Unique sequence number from 1 to 1500",
        "value": null,
        "type": "N",
        "length": "1-4",
        "headerTag": [
          "t106:NonArmsLengthWithNonResidentTransactionSlip"
        ],
        "mandatory": true
      },
      {
        "xmlTag": "t106:SlipActionCode",
        "num": "100",
        "info": "Type of supplement",
        "value": null,
        "type": "N",
        "length": "1-1",
        "mandatory": true
      },
      {
        "xmlTag": "t106:SlipDeleteReasonCode",
        "num": "101",
        "info": "Reason for deleting a supplement.",
        "value": null,
        "type": "N",
        "length": "1-1"
      },
      {
        "xmlTag": "t106:NonResidentName",
        "num": "1000",
        "info": "Name of non-resident",
        "value": null,
        "type": "AN",
        "length": "1-255",
        "mandatory": true
      },
      {
        "xmlTag": "t106:NonResidentAddress",
        "num": "1009",
        "info": "Address of non-resident",
        "value": null,
        "type": "AN",
        "length": "1-255",
        "mandatory": true
      },
      {
        "xmlTag": "t106:NonResidentCountryCode",
        "num": "1010",
        "info": "Country Code of non-resident",
        "value": null,
        "type": "A",
        "length": "3-3",
        "mandatory": true
      },
      {
        "xmlTag": "t106:RelationshipTypeCode",
        "num": "1150-1",
        "info": "Relationship type check box:",
        "value": null,
        "type": "N",
        "length": "1-1",
        "mandatory": true
      },
      {
        "xmlTag": "t106:TaxTreatyIndicator",
        "num": "1062-3",
        "info": "Is the non-resident in a country with which Canada does not have a tax treaty",
        "value": null,
        "type": "radio",
        "length": "1-1",
        "mandatory": [{"field": "t106s.1150-1", "isValue": "1"}]
      },
      {
        "xmlTag": "t106:NorthAmericanIndustryClassificationSystem",
        "info": "NorthAmericanIndustryClassificationSystem",
        "value": null,
        "type": "",
        "length": "",
        "mandatory": true,
        "staticHeader": true
      },
      {
        "xmlTag": "t106:NorthAmericanIndustryClassificationSystemCode",
        "num": "1131",
        "info": "NAICS code(s) for Principle activity of Foreign Affiliate",
        "value": null,
        "type": "N",
        "length": "2-6"
      },
      {
        "xmlTag": "t106:NorthAmericanIndustryClassificationSystemCode",
        "num": "1132",
        "info": "NAICS code(s) for Principle activity of Foreign Affiliate",
        "value": null,
        "type": "N",
        "length": "2-6"
      },
      {
        "xmlTag": "t106:NorthAmericanIndustryClassificationSystemCode",
        "num": "1133",
        "info": "NAICS code(s) for Principle activity of Foreign Affiliate",
        "value": null,
        "type": "N",
        "length": "2-6"
      },
      {
        "xmlTag": "t106:NorthAmericanIndustryClassificationSystemCode",
        "num": "1134",
        "info": "NAICS code(s) for Principle activity of Foreign Affiliate",
        "value": null,
        "type": "N",
        "length": "2-6"
      },
      {
        "xmlTag": "/t106:NorthAmericanIndustryClassificationSystem",
        "info": "NorthAmericanIndustryClassificationSystem",
        "value": null,
        "type": "",
        "length": "",
        "mandatory": true,
        "staticHeader": true
      },
      {
        "xmlTag": "t106:Country",
        "info": "Country header tag",
        "value": null,
        "type": "",
        "length": "",
        "mandatory": true,
        "staticHeader": true
      },
      {
        "xmlTag": "t106:CountryCode",
        "num": "1135",
        "info": "Up to 4 valid Country codes can be accepted.",
        "value": null,
        "type": "A",
        "length": "3-3"
      },
      {
        "xmlTag": "t106:CountryCode",
        "num": "1136",
        "info": "Up to 4 valid Country codes can be accepted.",
        "value": null,
        "type": "A",
        "length": "3-3"
      },
      {
        "xmlTag": "t106:CountryCode",
        "num": "1137",
        "info": "Up to 4 valid Country codes can be accepted.",
        "value": null,
        "type": "A",
        "length": "3-3"
      },
      {
        "xmlTag": "t106:CountryCode",
        "num": "1138",
        "info": "Up to 4 valid Country codes can be accepted.",
        "value": null,
        "type": "A",
        "length": "3-3"
      },
      {
        "xmlTag": "/t106:Country",
        "info": "Country header tag",
        "value": null,
        "type": "",
        "length": "",
        "mandatory": true,
        "staticHeader": true
      },
      {
        "xmlTag": "t106:ContemporaneousDocumentationIndicator",
        "num": "1062-6",
        "info": "Have you prepared or obtained…",
        "value": null,
        "type": "radio",
        "length": "1-1",
        "mandatory": true
      },
      {
        "xmlTag": "t106:TransferPricingMethodologyChangeIndicator",
        "num": "1062-7",
        "info": "Have any of the transfer pricing…",
        "value": null,
        "type": "radio",
        "length": "1-1",
        "mandatory": true
      },
      {
        "xmlTag": "t106:TangiblePropertyStockInTradeRawMaterial",
        "info": "Section 3 header",
        "value": null,
        "type": "",
        "length": "",
        "mandatory": [{"field": "t106s.1301-1", "isNotValue": "0"}, {"field": "t106s.1301-3", "isNotValue": "0"}],
        "staticHeader": true
      },
      {
        "xmlTag": "t106:SoldToNonResidentAmount",
        "num": "1301-1",
        "info": "Tangible propertyStock in trade/raw materialsSold to Non-Res Amount",
        "value": null,
        "type": "N",
        "length": "1-14"
      },
      {
        "xmlTag": "t106:SoldToNonResidentTransferPricingMethodologyCode",
        "num": "1301-2",
        "info": "Tangible propertyStock in trade/raw materialsSold to Non-Res TPM",
        "value": null,
        "type": "A",
        "length": "2-2"
      },
      {
        "xmlTag": "t106:PurchaseFromNonResidentAmount",
        "num": "1301-3",
        "info": "Tangible propertyStock in trade/raw materials",
        "value": null,
        "type": "N",
        "length": "1-14"
      },
      {
        "xmlTag": "t106:PurchaseFromNonResidentTransferPricingMethodologyCode",
        "num": "1301-4",
        "info": "Tangible propertyStock in trade/raw materialsPurchased from Non-Res TPM",
        "value": null,
        "type": "A",
        "length": "2-2"
      },
      {
        "xmlTag": "/t106:TangiblePropertyStockInTradeRawMaterial",
        "info": "Section 3 header",
        "value": null,
        "type": "",
        "length": "",
        "mandatory": [{"field": "t106s.1301-1", "isNotValue": "0"}, {"field": "t106s.1301-3", "isNotValue": "0"}],
        "staticHeader": true
      },
      {
        "xmlTag": "t106:TangiblePropertyOther",
        "info": "Section header",
        "value": null,
        "type": "",
        "length": "",
        "mandatory": [{"field": "t106s.1351-1", "isNotValue": "0"}, {"field": "t106s.1351-3", "isNotValue": "0"}],
        "staticHeader": true
      },
      {
        "xmlTag": "t106:OtherTangiblePropertyDescription",
        "num": "1351",
        "info": "Tangible property",
        "value": null,
        "type": "AN",
        "length": "1-50"
      },
      {
        "xmlTag": "t106:SoldToNonResidentAmount",
        "num": "1351-1",
        "info": "Tangible propertyOther – Specify",
        "value": null,
        "type": "N",
        "length": "1-14"
      },
      {
        "xmlTag": "t106:SoldToNonResidentTransferPricingMethodologyCode",
        "num": "1351-2",
        "info": "Tangible property Other – SpecifySold to Non-Res TPM",
        "value": null,
        "type": "A",
        "length": "2-2"
      },
      {
        "xmlTag": "t106:PurchaseFromNonResidentAmount",
        "num": "1351-3",
        "info": "Tangible propertyOther – SpecifyPurchased from Non-Res Amount",
        "value": null,
        "type": "N",
        "length": "1-14"
      },
      {
        "xmlTag": "t106:PurchaseFromNonResidentTransferPricingMethodologyCode",
        "num": "1351-4",
        "info": "Tangible propertyOther – SpecifyPurchased from Non-Res TPM",
        "value": null,
        "type": "A",
        "length": "2-2"
      },
      {
        "xmlTag": "/t106:TangiblePropertyOther",
        "info": "Section header",
        "value": null,
        "type": "",
        "length": "",
        "mandatory": [{"field": "t106s.1351-1", "isNotValue": "0"}, {"field": "t106s.1351-3", "isNotValue": "0"}],
        "staticHeader": true
      },
      {
        "xmlTag": "t106:Rent",
        "info": "Section header",
        "value": null,
        "type": "",
        "length": "",
        "mandatory": [{"field": "t106s.1403-1", "isNotValue": "0"}, {"field": "t106s.1403-3", "isNotValue": "0"}],
        "staticHeader": true
      },
      {
        "xmlTag": "t106:RevenueFromNonResidentAmount",
        "num": "1403-1",
        "info": "Rents, Royalties and Intangible Property",
        "value": null,
        "type": "N",
        "length": "1-14"
      },
      {
        "xmlTag": "t106:RevenueFromNonResidentTransferPricingMethodologyCode",
        "num": "1403-2",
        "info": "Rents, Royalties and Intangible Property",
        "value": null,
        "type": "A",
        "length": "2-2"
      },
      {
        "xmlTag": "t106:ExpenditureToNonResidentAmount",
        "num": "1403-3",
        "info": "Rents, Royalties and Intangible Property",
        "value": null,
        "type": "N",
        "length": "1-14"
      },
      {
        "xmlTag": "t106:ExpenditureToNonResidentTransferPricingMethodologyCode",
        "num": "1403-4",
        "info": "Rents, Royalties and Intangible Property",
        "value": null,
        "type": "A",
        "length": "2-2"
      },
      {
        "xmlTag": "/t106:Rent",
        "info": "Section header",
        "value": null,
        "type": "",
        "length": "",
        "mandatory": [{"field": "t106s.1403-1", "isNotValue": "0"}, {"field": "t106s.1403-3", "isNotValue": "0"}],
        "staticHeader": true
      },
      {
        "xmlTag": "t106:Royalty",
        "info": "Section header",
        "value": null,
        "type": "",
        "length": "",
        "mandatory": [{"field": "t106s.1404-1", "isNotValue": "0"},{"field": "t106s.1404-3", "isNotValue": "0"}],
        "staticHeader": true
      },
      {
        "xmlTag": "t106:RevenueFromNonResidentAmount",
        "num": "1404-1",
        "info": "Rents, Royalties and Intangible Property",
        "value": null,
        "type": "N",
        "length": "1-14"
      },
      {
        "xmlTag": "t106:RevenueFromNonResidentTransferPricingMethodologyCode",
        "num": "1404-2",
        "info": "Rents, Royalties and Intangible Property",
        "value": null,
        "type": "A",
        "length": "2-2"
      },
      {
        "xmlTag": "t106:ExpenditureToNonResidentAmount",
        "num": "1404-3",
        "info": "Rents, Royalties and Intangible Property",
        "value": null,
        "type": "N",
        "length": "1-14"
      },
      {
        "xmlTag": "t106:ExpenditureToNonResidentTransferPricingMethodologyCode",
        "num": "1404-4",
        "info": "Rents, Royalties and Intangible Property",
        "value": null,
        "type": "A",
        "length": "2-2"
      },
      {
        "xmlTag": "/t106:Royalty",
        "info": "Section header",
        "value": null,
        "type": "",
        "length": "",
        "mandatory": [{"field": "t106s.1404-1", "isNotValue": "0"},{"field": "t106s.1404-3", "isNotValue": "0"}],
        "staticHeader": true
      },
      {
        "xmlTag": "t106:LicenseOrFranchiseFee",
        "info": "Section header",
        "value": null,
        "type": "",
        "length": "",
        "mandatory": [{"field": "t106s.1405-1", "isNotValue": "0"},{"field": "t106s.1405-3", "isNotValue": "0"}],
        "staticHeader": true
      },
      {
        "xmlTag": "t106:RevenueFromNonResidentAmount",
        "num": "1405-1",
        "info": "Rents, Royalties and Intangible Property",
        "value": null,
        "type": "N",
        "length": "1-14"
      },
      {
        "xmlTag": "t106:RevenueFromNonResidentTransferPricingMethodologyCode",
        "num": "1405-2",
        "info": "Rents, Royalties and Intangible Property",
        "value": null,
        "type": "A",
        "length": "2-2"
      },
      {
        "xmlTag": "t106:ExpenditureToNonResidentAmount",
        "num": "1405-3",
        "info": "Rents, Royalties and Intangible Property",
        "value": null,
        "type": "N",
        "length": "1-14"
      },
      {
        "xmlTag": "t106:ExpenditureToNonResidentTransferPricingMethodologyCode",
        "num": "1405-4",
        "info": "Rents, Royalties and Intangible Property",
        "value": null,
        "type": "A",
        "length": "2-2"
      },
      {
        "xmlTag": "/t106:LicenseOrFranchiseFee",
        "info": "Section header",
        "value": null,
        "type": "",
        "length": "",
        "mandatory": [{"field": "t106s.1405-1", "isNotValue": "0"},{"field": "t106s.1405-3", "isNotValue": "0"}],
        "staticHeader": true
      },
      {
        "xmlTag": "t106:IntangiblePropertyOrRights",
        "info": "Section header",
        "value": null,
        "type": "",
        "length": "",
        "mandatory": [{"field": "t106s.1406-1", "isNotValue": "0"},{"field": "t106s.1406-3", "isNotValue": "0"}],
        "staticHeader": true
      },
      {
        "xmlTag": "t106:RevenueFromNonResidentAmount",
        "num": "1406-1",
        "info": "Rents, Royalties and Intangible Property",
        "value": null,
        "type": "N",
        "length": "1-14"
      },
      {
        "xmlTag": "t106:RevenueFromNonResidentTransferPricingMethodologyCode",
        "num": "1406-2",
        "info": "Rents, Royalties and Intangible Property",
        "value": null,
        "type": "A",
        "length": "2-2"
      },
      {
        "xmlTag": "t106:ExpenditureToNonResidentAmount",
        "num": "1406-3",
        "info": "Rents, Royalties and Intangible Property",
        "value": null,
        "type": "N",
        "length": "1-14"
      },
      {
        "xmlTag": "t106:ExpenditureToNonResidentTransferPricingMethodologyCode",
        "num": "1406-4",
        "info": "Rents, Royalties and Intangible Property",
        "value": null,
        "type": "A",
        "length": "2-2"
      },
      {
        "xmlTag": "/t106:IntangiblePropertyOrRights",
        "info": "Section header",
        "value": null,
        "type": "",
        "length": "",
        "mandatory": [{"field": "t106s.1406-1", "isNotValue": "0"},{"field": "t106s.1406-3", "isNotValue": "0"}],
        "staticHeader": true
      },
      {
        "xmlTag": "t106:Management",
        "info": "Section header",
        "value": null,
        "type": "",
        "length": "",
        "mandatory": [{"field": "t106s.1502-1", "isNotValue": "0"},{"field": "t106s.1502-3", "isNotValue": "0"}],
        "staticHeader": true
      },
      {
        "xmlTag": "t106:RevenueFromNonResidentAmount",
        "num": "1502-1",
        "info": "Rents, Royalties and Intangible Property",
        "value": null,
        "type": "N",
        "length": "1-14"
      },
      {
        "xmlTag": "t106:RevenueFromNonResidentTransferPricingMethodologyCode",
        "num": "1502-2",
        "info": "Rents, Royalties and Intangible Property",
        "value": null,
        "type": "A",
        "length": "2-2"
      },
      {
        "xmlTag": "t106:ExpenditureToNonResidentAmount",
        "num": "1502-3",
        "info": "Rents, Royalties and Intangible Property",
        "value": null,
        "type": "N",
        "length": "1-14"
      },
      {
        "xmlTag": "t106:ExpenditureToNonResidentTransferPricingMethodologyCode",
        "num": "1502-4",
        "info": "Rents, Royalties and Intangible Property",
        "value": null,
        "type": "A",
        "length": "2-2"
      },
      {
        "xmlTag": "/t106:Management",
        "info": "Section header",
        "value": null,
        "type": "",
        "length": "",
        "mandatory": [{"field": "t106s.1502-1", "isNotValue": "0"},{"field": "t106s.1502-3", "isNotValue": "0"}],
        "staticHeader": true
      },
      {
        "xmlTag": "t106:Engineering",
        "info": "Section header",
        "value": null,
        "type": "",
        "length": "",
        "mandatory": [{"field": "t106s.1503-1", "isNotValue": "0"},{"field": "t106s.1503-3", "isNotValue": "0"}],
        "staticHeader": true
      },
      {
        "xmlTag": "t106:RevenueFromNonResidentAmount",
        "num": "1503-1",
        "info": "Rents, Royalties and Intangible Property",
        "value": null,
        "type": "N",
        "length": "1-14"
      },
      {
        "xmlTag": "t106:RevenueFromNonResidentTransferPricingMethodologyCode",
        "num": "1503-2",
        "info": "Rents, Royalties and Intangible Property",
        "value": null,
        "type": "A",
        "length": "2-2"
      },
      {
        "xmlTag": "t106:ExpenditureToNonResidentAmount",
        "num": "1503-3",
        "info": "Rents, Royalties and Intangible Property",
        "value": null,
        "type": "N",
        "length": "1-14"
      },
      {
        "xmlTag": "t106:ExpenditureToNonResidentTransferPricingMethodologyCode",
        "num": "1503-4",
        "info": "Rents, Royalties and Intangible Property",
        "value": null,
        "type": "A",
        "length": "2-2"
      },
      {
        "xmlTag": "/t106:Engineering",
        "info": "Section header",
        "value": null,
        "type": "",
        "length": "",
        "mandatory": [{"field": "t106s.1503-1", "isNotValue": "0"},{"field": "t106s.1503-3", "isNotValue": "0"}],
        "staticHeader": true
      },
      {
        "xmlTag": "t106:ResearchAndDevelopment",
        "info": "Section header",
        "value": null,
        "type": "",
        "length": "",
        "mandatory": [{"field": "t106s.1504-1", "isNotValue": "0"},{"field": "t106s.1504-3", "isNotValue": "0"}],
        "staticHeader": true
      },
      {
        "xmlTag": "t106:RevenueFromNonResidentAmount",
        "num": "1504-1",
        "info": "Rents, Royalties and Intangible Property",
        "value": null,
        "type": "N",
        "length": "1-14"
      },
      {
        "xmlTag": "t106:RevenueFromNonResidentTransferPricingMethodologyCode",
        "num": "1504-2",
        "info": "Rents, Royalties and Intangible Property",
        "value": null,
        "type": "A",
        "length": "2-2"
      },
      {
        "xmlTag": "t106:ExpenditureToNonResidentAmount",
        "num": "1504-3",
        "info": "Rents, Royalties and Intangible Property",
        "value": null,
        "type": "N",
        "length": "1-14"
      },
      {
        "xmlTag": "t106:ExpenditureToNonResidentTransferPricingMethodologyCode",
        "num": "1504-4",
        "info": "Rents, Royalties and Intangible Property",
        "value": null,
        "type": "A",
        "length": "2-2"
      },
      {
        "xmlTag": "/t106:ResearchAndDevelopment",
        "info": "Section header",
        "value": null,
        "type": "",
        "length": "",
        "mandatory": [{"field": "t106s.1504-1", "isNotValue": "0"},{"field": "t106s.1504-3", "isNotValue": "0"}],
        "staticHeader": true
      },
      {
        "xmlTag": "t106:Commission",
        "info": "Section header",
        "value": null,
        "type": "",
        "length": "",
        "mandatory": [{"field": "t106s.1505-1", "isNotValue": "0"},{"field": "t106s.1505-3", "isNotValue": "0"}],
        "staticHeader": true
      },
      {
        "xmlTag": "t106:RevenueFromNonResidentAmount",
        "num": "1505-1",
        "info": "Rents, Royalties and Intangible Property",
        "value": null,
        "type": "N",
        "length": "1-14"
      },
      {
        "xmlTag": "t106:RevenueFromNonResidentTransferPricingMethodologyCode",
        "num": "1505-2",
        "info": "Rents, Royalties and Intangible Property",
        "value": null,
        "type": "A",
        "length": "2-2"
      },
      {
        "xmlTag": "t106:ExpenditureToNonResidentAmount",
        "num": "1505-3",
        "info": "Rents, Royalties and Intangible Property",
        "value": null,
        "type": "N",
        "length": "1-14"
      },
      {
        "xmlTag": "t106:ExpenditureToNonResidentTransferPricingMethodologyCode",
        "num": "1505-4",
        "info": "Rents, Royalties and Intangible Property",
        "value": null,
        "type": "A",
        "length": "2-2"
      },
      {
        "xmlTag": "/t106:Commission",
        "info": "Section header",
        "value": null,
        "type": "",
        "length": "",
        "mandatory": [{"field": "t106s.1505-1", "isNotValue": "0"},{"field": "t106s.1505-3", "isNotValue": "0"}],
        "staticHeader": true
      },
      {
        "xmlTag": "t106:Interest",
        "info": "Section header",
        "value": null,
        "type": "",
        "length": "",
        "mandatory": [{"field": "t106s.1602-1", "isNotValue": "0"},{"field": "t106s.1602-3", "isNotValue": "0"}],
        "staticHeader": true
      },
      {
        "xmlTag": "t106:RevenueFromNonResidentAmount",
        "num": "1602-1",
        "info": "Rents, Royalties and Intangible Property",
        "value": null,
        "type": "N",
        "length": "1-14"
      },
      {
        "xmlTag": "t106:ExpenditureToNonResidentAmount",
        "num": "1602-3",
        "info": "Rents, Royalties and Intangible Property",
        "value": null,
        "type": "N",
        "length": "1-14"
      },
      {
        "xmlTag": "/t106:Interest",
        "info": "Section header",
        "value": null,
        "type": "",
        "length": "",
        "mandatory": [{"field": "t106s.1602-1", "isNotValue": "0"},{"field": "t106s.1602-3", "isNotValue": "0"}],
        "staticHeader": true
      },
      {
        "xmlTag": "t106:Dividend",
        "info": "Section header",
        "value": null,
        "type": "",
        "length": "",
        "mandatory": [{"field": "t106s.1603-1", "isNotValue": "0"},{"field": "t106s.1603-3", "isNotValue": "0"}],
        "staticHeader": true
      },
      {
        "xmlTag": "t106:RevenueFromNonResidentAmount",
        "num": "1603-1",
        "info": "Rents, Royalties and Intangible Property",
        "value": null,
        "type": "N",
        "length": "1-14"
      },
      {
        "xmlTag": "t106:ExpenditureToNonResidentAmount",
        "num": "1603-3",
        "info": "Rents, Royalties and Intangible Property",
        "value": null,
        "type": "N",
        "length": "1-14"
      },
      {
        "xmlTag": "/t106:Dividend",
        "info": "Section header",
        "value": null,
        "type": "",
        "length": "",
        "mandatory": [{"field": "t106s.1603-1", "isNotValue": "0"},{"field": "t106s.1603-3", "isNotValue": "0"}],
        "staticHeader": true
      },
      {
        "xmlTag": "t106:SaleOfFinancialProperty",
        "info": "Section header",
        "value": null,
        "type": "",
        "length": "",
        "mandatory": [{"field": "t106s.1604-1", "isNotValue": "0"},{"field": "t106s.1604-3", "isNotValue": "0"}],
        "staticHeader": true
      },
      {
        "xmlTag": "t106:RevenueFromNonResidentAmount",
        "num": "1604-1",
        "info": "Rents, Royalties and Intangible Property",
        "value": null,
        "type": "N",
        "length": "1-14"
      },
      {
        "xmlTag": "t106:ExpenditureToNonResidentAmount",
        "num": "1604-3",
        "info": "Rents, Royalties and Intangible Property",
        "value": null,
        "type": "N",
        "length": "1-14"
      },
      {
        "xmlTag": "/t106:SaleOfFinancialProperty",
        "info": "Section header",
        "value": null,
        "type": "",
        "length": "",
        "mandatory": [{"field": "t106s.1604-1", "isNotValue": "0"},{"field": "t106s.1604-3", "isNotValue": "0"}],
        "staticHeader": true
      },
      {
        "xmlTag": "t106:LeasePayment",
        "info": "Section header",
        "value": null,
        "type": "",
        "length": "",
        "mandatory": [{"field": "t106s.1605-1", "isNotValue": "0"},{"field": "t106s.1605-3", "isNotValue": "0"}],
        "staticHeader": true
      },
      {
        "xmlTag": "t106:RevenueFromNonResidentAmount",
        "num": "1605-1",
        "info": "Rents, Royalties and Intangible Property",
        "value": null,
        "type": "N",
        "length": "1-14"
      },
      {
        "xmlTag": "t106:ExpenditureToNonResidentAmount",
        "num": "1605-3",
        "info": "Rents, Royalties and Intangible Property",
        "value": null,
        "type": "N",
        "length": "1-14"
      },
      {
        "xmlTag": "/t106:LeasePayment",
        "info": "Section header",
        "value": null,
        "type": "",
        "length": "",
        "mandatory": [{"field": "t106s.1605-1", "isNotValue": "0"},{"field": "t106s.1605-3", "isNotValue": "0"}],
        "staticHeader": true
      },
      {
        "xmlTag": "t106:SecuritiesLending",
        "info": "Section header",
        "value": null,
        "type": "",
        "length": "",
        "mandatory": [{"field": "t106s.1606-1", "isNotValue": "0"},{"field": "t106s.1606-3", "isNotValue": "0"}],
        "staticHeader": true
      },
      {
        "xmlTag": "t106:RevenueFromNonResidentAmount",
        "num": "1606-1",
        "info": "Rents, Royalties and Intangible Property",
        "value": null,
        "type": "N",
        "length": "1-14"
      },
      {
        "xmlTag": "t106:ExpenditureToNonResidentAmount",
        "num": "1606-3",
        "info": "Rents, Royalties and Intangible Property",
        "value": null,
        "type": "N",
        "length": "1-14"
      },
      {
        "xmlTag": "/t106:SecuritiesLending",
        "info": "Section header",
        "value": null,
        "type": "",
        "length": "",
        "mandatory": [{"field": "t106s.1606-1", "isNotValue": "0"},{"field": "t106s.1606-3", "isNotValue": "0"}],
        "staticHeader": true
      },

      {
        "xmlTag": "t106:Insurance",
        "info": "Section header",
        "value": null,
        "type": "",
        "length": "",
        "mandatory": [{"field": "t106s.1632-1", "isNotValue": "0"},{"field": "t106s.1632-3", "isNotValue": "0"}],
        "staticHeader": true
      },
      {
        "xmlTag": "t106:RevenueFromNonResidentAmount",
        "num": "1632-1",
        "info": "Rents, Royalties and Intangible Property",
        "value": null,
        "type": "N",
        "length": "1-14"
      },
      {
        "xmlTag": "t106:RevenueFromNonResidentTransferPricingMethodologyCode",
        "num": "1632-2",
        "info": "Rents, Royalties and Intangible Property",
        "value": null,
        "type": "A",
        "length": "2-2"
      },
      {
        "xmlTag": "t106:ExpenditureToNonResidentAmount",
        "num": "1632-3",
        "info": "Rents, Royalties and Intangible Property",
        "value": null,
        "type": "N",
        "length": "1-14"
      },
      {
        "xmlTag": "t106:ExpenditureToNonResidentTransferPricingMethodologyCode",
        "num": "1632-4",
        "info": "Rents, Royalties and Intangible Property",
        "value": null,
        "type": "A",
        "length": "2-2"
      },
      {
        "xmlTag": "/t106:Insurance",
        "info": "Section header",
        "value": null,
        "type": "",
        "length": "",
        "mandatory": [{"field": "t106s.1632-1", "isNotValue": "0"},{"field": "t106s.1632-3", "isNotValue": "0"}],
        "staticHeader": true
      },
      {
        "xmlTag": "t106:FinancialOther",
        "info": "Section header",
        "value": null,
        "type": "",
        "length": "",
        "mandatory": [{"field": "t106s.1651-1", "isNotValue": "0"},{"field": "t106s.1651-3", "isNotValue": "0"}, {"field": "t106s.1651", "isNotValue": ""}],
        "staticHeader": true
      },
      {
        "xmlTag": "t106:FinancialOtherDescription",
        "num": "1651",
        "info": "Description",
        "value": null,
        "type": "AN",
        "length": "1-50"
      },
      {
        "xmlTag": "t106:RevenueFromNonResidentAmount",
        "num": "1651-1",
        "info": "Rents, Royalties and Intangible Property",
        "value": null,
        "type": "N",
        "length": "1-14",
        "mandatory": [{"field": "t106s.1651", "isNotValue": ""}]
      },
      {
        "xmlTag": "t106:RevenueFromNonResidentTransferPricingMethodologyCode",
        "num": "1651-2",
        "info": "Rents, Royalties and Intangible Property",
        "value": null,
        "type": "A",
        "length": "2-2"
      },
      {
        "xmlTag": "t106:ExpenditureToNonResidentAmount",
        "num": "1651-3",
        "info": "Rents, Royalties and Intangible Property",
        "value": null,
        "type": "N",
        "length": "1-14"
      },
      {
        "xmlTag": "t106:ExpenditureToNonResidentTransferPricingMethodologyCode",
        "num": "1651-4",
        "info": "Rents, Royalties and Intangible Property",
        "value": null,
        "type": "A",
        "length": "2-2"
      },
      {
        "xmlTag": "/t106:FinancialOther",
        "info": "Section header",
        "value": null,
        "type": "",
        "length": "",
        "mandatory": [{"field": "t106s.1651-1", "isNotValue": "0"},{"field": "t106s.1651-3", "isNotValue": "0"}],
        "staticHeader": true
      },
      {
        "xmlTag": "t106:ReimbursementOfExpense",
        "info": "Section header",
        "value": null,
        "type": "",
        "length": "",
        "mandatory": [{"field": "t106s.1702-1", "isNotValue": "0"},{"field": "t106s.1702-3", "isNotValue": "0"}],
        "staticHeader": true
      },
      {
        "xmlTag": "t106:RevenueFromNonResidentAmount",
        "num": "1702-1",
        "info": "Rents, Royalties and Intangible Property",
        "value": null,
        "type": "N",
        "length": "1-14"
      },
      {
        "xmlTag": "t106:ExpenditureToNonResidentAmount",
        "num": "1702-3",
        "info": "Rents, Royalties and Intangible Property",
        "value": null,
        "type": "N",
        "length": "1-14"
      },
      {
        "xmlTag": "/t106:ReimbursementOfExpense",
        "info": "Section header",
        "value": null,
        "type": "",
        "length": "",
        "mandatory": [{"field": "t106s.1702-1", "isNotValue": "0"},{"field": "t106s.1702-3", "isNotValue": "0"}],
        "staticHeader": true
      },
      {
        "xmlTag": "t106:OtherTransaction",
        "info": "Section header",
        "value": null,
        "type": "",
        "length": "",
        "mandatory": [{"field": "t106s.1751-1", "isNotValue": "0"},{"field": "t106s.1751-3", "isNotValue": "0"}, {"field": "t106s.1751", "isNotValue": ""}],
        "staticHeader": true
      },
      {
        "xmlTag": "t106:OtherTransactionDescription",
        "num": "1751",
        "info": "Description",
        "value": null,
        "type": "AN",
        "length": "1-50"
      },
      {
        "xmlTag": "t106:RevenueFromNonResidentAmount",
        "num": "1751-1",
        "info": "Rents, Royalties and Intangible Property",
        "value": null,
        "type": "N",
        "length": "1-14",
        "mandatory": [{"field": "t106s.1751", "isNotValue": ""}]
      },
      {
        "xmlTag": "t106:RevenueFromNonResidentTransferPricingMethodologyCode",
        "num": "1751-2",
        "info": "Rents, Royalties and Intangible Property",
        "value": null,
        "type": "A",
        "length": "2-2"
      },
      {
        "xmlTag": "t106:ExpenditureToNonResidentAmount",
        "num": "1751-3",
        "info": "Rents, Royalties and Intangible Property",
        "value": null,
        "type": "N",
        "length": "1-14"
      },
      {
        "xmlTag": "t106:ExpenditureToNonResidentTransferPricingMethodologyCode",
        "num": "1751-4",
        "info": "Rents, Royalties and Intangible Property",
        "value": null,
        "type": "A",
        "length": "2-2"
      },
      {
        "xmlTag": "/t106:OtherTransaction",
        "info": "Section header",
        "value": null,
        "type": "",
        "length": "",
        "mandatory": [{"field": "t106s.1751-1", "isNotValue": "0"},{"field": "t106s.1751-3", "isNotValue": "0"}],
        "staticHeader": true
      },
      {
        "xmlTag": "t106:NonArmsLengthNonResidentSaleRevenueTotalAmount",
        "num": "1752",
        "info": "Box A - Total of all Sold to Non-res amounts",
        "value": null,
        "type": "N",
        "length": "1-14",
        "mandatory": true
      },
      {
        "xmlTag": "t106:NonArmsLengthNonResidentPurchaseExpenditureTotalAmount",
        "num": "1752-2",
        "info": "Box B - Total of all purchased from non-res amounts",
        "value": null,
        "type": "N",
        "length": "1-14",
        "mandatory": true
      },
      {
        "xmlTag": "t106:OwedByReportingTaxpayerAmount",
        "info": "Section header",
        "value": null,
        "type": "",
        "length": "",
        "mandatory": true,
        "staticHeader": true
      },
      {
        "xmlTag": "t106:BeginningBalanceAmount",
        "num": "1801",
        "info": "Amounts owed by reporting person/partnership",
        "value": null,
        "type": "N",
        "length": "1-14",
        "mandatory": true
      },
      {
        "xmlTag": "t106:IncreaseAmount",
        "num": "1802",
        "info": "Amounts owed by reporting person/partnership",
        "value": null,
        "type": "N",
        "length": "1-14",
        "mandatory": true
      },
      {
        "xmlTag": "t106:DecreaseAmount",
        "num": "1803",
        "info": "Amounts owed by reporting person/partnership",
        "value": null,
        "type": "N",
        "length": "1-14",
        "mandatory": true
      },
      {
        "xmlTag": "t106:EndingBalanceAmount",
        "num": "1804",
        "info": "Amounts owed by reporting person/partnership",
        "value": null,
        "type": "N",
        "length": "1-14",
        "mandatory": true
      },
      {
        "xmlTag": "/t106:OwedByReportingTaxpayerAmount",
        "info": "Section header",
        "value": null,
        "type": "",
        "length": "",
        "mandatory": true,
        "staticHeader": true
      },
      {
        "xmlTag": "t106:OwedToReportingTaxpayerAmount",
        "info": "Section header",
        "value": null,
        "type": "",
        "length": "",
        "mandatory": true,
        "staticHeader": true
      },
      {
        "xmlTag": "t106:BeginningBalanceAmount",
        "num": "1805",
        "info": "Amounts owed by reporting person/partnership",
        "value": null,
        "type": "N",
        "length": "1-14",
        "mandatory": true
      },
      {
        "xmlTag": "t106:IncreaseAmount",
        "num": "1806",
        "info": "Amounts owed by reporting person/partnership",
        "value": null,
        "type": "N",
        "length": "1-14",
        "mandatory": true
      },
      {
        "xmlTag": "t106:DecreaseAmount",
        "num": "1807",
        "info": "Amounts owed by reporting person/partnership",
        "value": null,
        "type": "N",
        "length": "1-14",
        "mandatory": true
      },
      {
        "xmlTag": "t106:EndingBalanceAmount",
        "num": "1808",
        "info": "Amounts owed by reporting person/partnership",
        "value": null,
        "type": "N",
        "length": "1-14",
        "mandatory": true
      },
      {
        "xmlTag": "/t106:OwedToReportingTaxpayerAmount",
        "info": "Section header",
        "value": null,
        "type": "",
        "length": "",
        "mandatory": true,
        "staticHeader": true
      },
      {
        "xmlTag": "t106:InvestmentInNonResident",
        "info": "Section header",
        "value": null,
        "type": "",
        "length": "",
        "mandatory": true,
        "staticHeader": true
      },
      {
        "xmlTag": "t106:BeginningBalanceAmount",
        "num": "1809",
        "info": "Amounts owed by reporting person/partnership",
        "value": null,
        "type": "N",
        "length": "1-14",
        "mandatory": true
      },
      {
        "xmlTag": "t106:IncreaseAmount",
        "num": "1810",
        "info": "Amounts owed by reporting person/partnership",
        "value": null,
        "type": "N",
        "length": "1-14",
        "mandatory": true
      },
      {
        "xmlTag": "t106:DecreaseAmount",
        "num": "1811",
        "info": "Amounts owed by reporting person/partnership",
        "value": null,
        "type": "N",
        "length": "1-14",
        "mandatory": true
      },
      {
        "xmlTag": "t106:EndingBalanceAmount",
        "num": "1812",
        "info": "Amounts owed by reporting person/partnership",
        "value": null,
        "type": "N",
        "length": "1-14",
        "mandatory": true
      },
      {
        "xmlTag": "/t106:InvestmentInNonResident",
        "info": "Section header",
        "value": null,
        "type": "",
        "length": "",
        "mandatory": true,
        "staticHeader": true
      },
      {
        "xmlTag": "t106:NonArmsLengthNonResidentLoanAdvanceInvestmentIncreaseTotalAmount",
        "num": "1820",
        "info": "Box C - Total of all Increase Amounts",
        "value": null,
        "type": "N",
        "length": "1-14",
        "mandatory": true
      },
      {
        "xmlTag": "t106:NonArmsLengthNonResidentLoanAdvanceInvestmentDecreaseTotalAmount",
        "num": "1830",
        "info": "Box D - Total of all Decrease Amounts",
        "value": null,
        "type": "N",
        "length": "1-14",
        "mandatory": true
      },
      {
        "xmlTag": "t106:InterestRateContract",
        "info": "Section header",
        "value": null,
        "type": "",
        "length": "",
        "mandatory": true,
        "staticHeader": true
      },
      {
        "xmlTag": "t106:ContractCount",
        "num": "1901",
        "info": "101 Interest Rate Contracts",
        "value": null,
        "type": "N",
        "length": "1-9",
        "mandatory": true
      },
      {
        "xmlTag": "t106:NotionalAmount",
        "num": "1902",
        "info": "101 Interest Rate Contracts",
        "value": null,
        "type": "N",
        "length": "1-14",
        "mandatory": true
      },
      {
        "xmlTag": "t106:RevenueFromNonResidentAmount",
        "num": "1903",
        "info": "101 Interest Rate Contracts",
        "value": null,
        "type": "N",
        "length": "1-14",
        "mandatory": true
      },
      {
        "xmlTag": "t106:ExpenditureToNonResidentAmount",
        "num": "1904",
        "info": "101 Interest Rate Contracts",
        "value": null,
        "type": "N",
        "length": "1-14",
        "mandatory": true
      },
      {
        "xmlTag": "/t106:InterestRateContract",
        "info": "Section header",
        "value": null,
        "type": "",
        "length": "",
        "mandatory": true,
        "staticHeader": true
      },
      {
        "xmlTag": "t106:ForeignExchangeContract",
        "info": "Section header",
        "value": null,
        "type": "",
        "length": "",
        "mandatory": true,
        "staticHeader": true
      },
      {
        "xmlTag": "t106:ContractCount",
        "num": "1905",
        "info": "101 Interest Rate Contracts",
        "value": null,
        "type": "N",
        "length": "1-9",
        "mandatory": true
      },
      {
        "xmlTag": "t106:NotionalAmount",
        "num": "1906",
        "info": "101 Interest Rate Contracts",
        "value": null,
        "type": "N",
        "length": "1-14",
        "mandatory": true
      },
      {
        "xmlTag": "t106:RevenueFromNonResidentAmount",
        "num": "1907",
        "info": "101 Interest Rate Contracts",
        "value": null,
        "type": "N",
        "length": "1-14",
        "mandatory": true
      },
      {
        "xmlTag": "t106:ExpenditureToNonResidentAmount",
        "num": "1908",
        "info": "101 Interest Rate Contracts",
        "value": null,
        "type": "N",
        "length": "1-14",
        "mandatory": true
      },
      {
        "xmlTag": "/t106:ForeignExchangeContract",
        "info": "Section header",
        "value": null,
        "type": "",
        "length": "",
        "mandatory": true,
        "staticHeader": true
      },
      {
        "xmlTag": "t106:CreditContract",
        "info": "Section header",
        "value": null,
        "type": "",
        "length": "",
        "mandatory": true,
        "staticHeader": true
      },
      {
        "xmlTag": "t106:ContractCount",
        "num": "1909",
        "info": "101 Interest Rate Contracts",
        "value": null,
        "type": "N",
        "length": "1-9",
        "mandatory": true
      },
      {
        "xmlTag": "t106:NotionalAmount",
        "num": "1910",
        "info": "101 Interest Rate Contracts",
        "value": null,
        "type": "N",
        "length": "1-14",
        "mandatory": true
      },
      {
        "xmlTag": "t106:RevenueFromNonResidentAmount",
        "num": "1911",
        "info": "101 Interest Rate Contracts",
        "value": null,
        "type": "N",
        "length": "1-14",
        "mandatory": true
      },
      {
        "xmlTag": "t106:ExpenditureToNonResidentAmount",
        "num": "1912",
        "info": "101 Interest Rate Contracts",
        "value": null,
        "type": "N",
        "length": "1-14",
        "mandatory": true
      },
      {
        "xmlTag": "/t106:CreditContract",
        "info": "Section header",
        "value": null,
        "type": "",
        "length": "",
        "mandatory": true,
        "staticHeader": true
      },
      {
        "xmlTag": "t106:EquityContract",
        "info": "Section header",
        "value": null,
        "type": "",
        "length": "",
        "mandatory": true,
        "staticHeader": true
      },
      {
        "xmlTag": "t106:ContractCount",
        "num": "1913",
        "info": "101 Interest Rate Contracts",
        "value": null,
        "type": "N",
        "length": "1-9",
        "mandatory": true
      },
      {
        "xmlTag": "t106:NotionalAmount",
        "num": "1914",
        "info": "101 Interest Rate Contracts",
        "value": null,
        "type": "N",
        "length": "1-14",
        "mandatory": true
      },
      {
        "xmlTag": "t106:RevenueFromNonResidentAmount",
        "num": "1915",
        "info": "101 Interest Rate Contracts",
        "value": null,
        "type": "N",
        "length": "1-14",
        "mandatory": true
      },
      {
        "xmlTag": "t106:ExpenditureToNonResidentAmount",
        "num": "1916",
        "info": "101 Interest Rate Contracts",
        "value": null,
        "type": "N",
        "length": "1-14",
        "mandatory": true
      },
      {
        "xmlTag": "/t106:EquityContract",
        "info": "Section header",
        "value": null,
        "type": "",
        "length": "",
        "mandatory": true,
        "staticHeader": true
      },
      {
        "xmlTag": "t106:CommodityContract",
        "info": "Section header",
        "value": null,
        "type": "",
        "length": "",
        "mandatory": true,
        "staticHeader": true
      },
      {
        "xmlTag": "t106:ContractCount",
        "num": "1917",
        "info": "101 Interest Rate Contracts",
        "value": null,
        "type": "N",
        "length": "1-9",
        "mandatory": true
      },
      {
        "xmlTag": "t106:NotionalAmount",
        "num": "1918",
        "info": "101 Interest Rate Contracts",
        "value": null,
        "type": "N",
        "length": "1-14",
        "mandatory": true
      },
      {
        "xmlTag": "t106:RevenueFromNonResidentAmount",
        "num": "1919",
        "info": "101 Interest Rate Contracts",
        "value": null,
        "type": "N",
        "length": "1-14",
        "mandatory": true
      },
      {
        "xmlTag": "t106:ExpenditureToNonResidentAmount",
        "num": "1920",
        "info": "101 Interest Rate Contracts",
        "value": null,
        "type": "N",
        "length": "1-14",
        "mandatory": true
      },
      {
        "xmlTag": "/t106:CommodityContract",
        "info": "Section header",
        "value": null,
        "type": "",
        "length": "",
        "mandatory": true,
        "staticHeader": true
      },
      {
        "xmlTag": "t106:IndexContract",
        "info": "Section header",
        "value": null,
        "type": "",
        "length": "",
        "mandatory": true,
        "staticHeader": true
      },
      {
        "xmlTag": "t106:ContractCount",
        "num": "1921",
        "info": "101 Interest Rate Contracts",
        "value": null,
        "type": "N",
        "length": "1-9",
        "mandatory": true
      },
      {
        "xmlTag": "t106:NotionalAmount",
        "num": "1922",
        "info": "101 Interest Rate Contracts",
        "value": null,
        "type": "N",
        "length": "1-14",
        "mandatory": true
      },
      {
        "xmlTag": "t106:RevenueFromNonResidentAmount",
        "num": "1923",
        "info": "101 Interest Rate Contracts",
        "value": null,
        "type": "N",
        "length": "1-14",
        "mandatory": true
      },
      {
        "xmlTag": "t106:ExpenditureToNonResidentAmount",
        "num": "1924",
        "info": "101 Interest Rate Contracts",
        "value": null,
        "type": "N",
        "length": "1-14",
        "mandatory": true
      },
      {
        "xmlTag": "/t106:IndexContract",
        "info": "Section header",
        "value": null,
        "type": "",
        "length": "",
        "mandatory": true,
        "staticHeader": true
      },
      {
        "xmlTag": "t106:DerivativeFee",
        "info": "Section header",
        "value": null,
        "type": "",
        "length": "",
        "mandatory": true,
        "staticHeader": true
      },
      {
        "xmlTag": "t106:ContractCount",
        "num": "1925",
        "info": "101 Interest Rate Contracts",
        "value": null,
        "type": "N",
        "length": "1-9",
        "mandatory": true
      },
      {
        "xmlTag": "t106:NotionalAmount",
        "num": "1926",
        "info": "101 Interest Rate Contracts",
        "value": null,
        "type": "N",
        "length": "1-14",
        "mandatory": true
      },
      {
        "xmlTag": "t106:RevenueFromNonResidentAmount",
        "num": "1927",
        "info": "101 Interest Rate Contracts",
        "value": null,
        "type": "N",
        "length": "1-14",
        "mandatory": true
      },
      {
        "xmlTag": "t106:ExpenditureToNonResidentAmount",
        "num": "1928",
        "info": "101 Interest Rate Contracts",
        "value": null,
        "type": "N",
        "length": "1-14",
        "mandatory": true
      },
      {
        "xmlTag": "/t106:DerivativeFee",
        "info": "Section header",
        "value": null,
        "type": "",
        "length": "",
        "mandatory": true,
        "staticHeader": true
      },
      {
        "xmlTag": "t106:DerivativeOtherPayment",
        "info": "Section header",
        "value": null,
        "type": "",
        "length": "",
        "mandatory": true,
        "staticHeader": true
      },
      {
        "xmlTag": "t106:ContractCount",
        "num": "1930",
        "info": "101 Interest Rate Contracts",
        "value": null,
        "type": "N",
        "length": "1-9",
        "mandatory": true
      },
      {
        "xmlTag": "t106:NotionalAmount",
        "num": "1931",
        "info": "101 Interest Rate Contracts",
        "value": null,
        "type": "N",
        "length": "1-14",
        "mandatory": true
      },
      {
        "xmlTag": "t106:RevenueFromNonResidentAmount",
        "num": "1932",
        "info": "101 Interest Rate Contracts",
        "value": null,
        "type": "N",
        "length": "1-14",
        "mandatory": true
      },
      {
        "xmlTag": "t106:ExpenditureToNonResidentAmount",
        "num": "1933",
        "info": "101 Interest Rate Contracts",
        "value": null,
        "type": "N",
        "length": "1-14",
        "mandatory": true
      },
      {
        "xmlTag": "/t106:DerivativeOtherPayment",
        "info": "Section header",
        "value": null,
        "type": "",
        "length": "",
        "mandatory": true,
        "staticHeader": true
      },
      {
        "xmlTag": "t106:NonArmsLengthNonResidentDerivativeContractTotalCount",
        "num": "1951",
        "info": "Box E – Total from all # of Contracts",
        "value": null,
        "type": "N",
        "length": "1-9",
        "mandatory": true
      },
      {
        "xmlTag": "t106:NonArmsLengthNonResidentDerivativeNotionalTotalAmount",
        "num": "1952",
        "info": "Box F – Total of all Notional amounts",
        "value": null,
        "type": "N",
        "length": "1-14",
        "mandatory": true
      },
      {
        "xmlTag": "t106:NonArmsLengthNonResidentDerivativeRevenueTotalAmount",
        "num": "1953",
        "info": "Box G – Total of all Revenue from non-resident amounts",
        "value": null,
        "type": "N",
        "length": "1-14",
        "mandatory": true
      },
      {
        "xmlTag": "t106:NonArmsLengthNonResidentDerivativeExpenditureTotalAmount",
        "num": "1954",
        "info": "Box H – Total of all Expenditure to non-resident amounts",
        "value": null,
        "type": "N",
        "length": "1-14",
        "mandatory": true
      },
      {
        "xmlTag": "t106:BoxTotalAmount",
        "num": "1961",
        "info": "Box I – Total of all entries from Boxes A, B, C, D, G and H",
        "value": null,
        "type": "N",
        "length": "1-14"
      },
      {
        "xmlTag": "t106:AccountPayableAmount",
        "info": "Section header",
        "value": null,
        "type": "",
        "length": "",
        "mandatory": true,
        "staticHeader": true
      },
      {
        "xmlTag": "t106:BeginningBalanceAmount",
        "num": "2001",
        "info": "Amount of Accounts PayableBeginning Balance",
        "value": null,
        "type": "N",
        "length": "1-14",
        "mandatory": true
      },
      {
        "xmlTag": "t106:IncreaseAmount",
        "num": "2002",
        "info": "Amount of Accounts PayableIncrease",
        "value": null,
        "type": "N",
        "length": "1-14",
        "mandatory": true
      },
      {
        "xmlTag": "t106:DecreaseAmount",
        "num": "2003",
        "info": "Amount of Accounts PayableDecrease",
        "value": null,
        "type": "N",
        "length": "1-14",
        "mandatory": true
      },
      {
        "xmlTag": "t106:EndingBalanceAmount",
        "num": "2004",
        "info": "Ending Balance",
        "value": null,
        "type": "N",
        "length": "1-14",
        "mandatory": true
      },
      {
        "xmlTag": "/t106:AccountPayableAmount",
        "info": "Section header",
        "value": null,
        "type": "",
        "length": "",
        "mandatory": true,
        "staticHeader": true
      },
      {
        "xmlTag": "t106:AccountReceivableAmount",
        "info": "Section header",
        "value": null,
        "type": "",
        "length": "",
        "mandatory": true,
        "staticHeader": true
      },
      {
        "xmlTag": "t106:BeginningBalanceAmount",
        "num": "2005",
        "info": "Amount of Accounts PayableBeginning Balance",
        "value": null,
        "type": "N",
        "length": "1-14",
        "mandatory": true
      },
      {
        "xmlTag": "t106:IncreaseAmount",
        "num": "2006",
        "info": "Amount of Accounts PayableIncrease",
        "value": null,
        "type": "N",
        "length": "1-14",
        "mandatory": true
      },
      {
        "xmlTag": "t106:DecreaseAmount",
        "num": "2007",
        "info": "Amount of Accounts PayableDecrease",
        "value": null,
        "type": "N",
        "length": "1-14",
        "mandatory": true
      },
      {
        "xmlTag": "t106:EndingBalanceAmount",
        "num": "2008",
        "info": "Ending Balance",
        "value": null,
        "type": "N",
        "length": "1-14",
        "mandatory": true
      },
      {
        "xmlTag": "/t106:AccountReceivableAmount",
        "info": "Section header",
        "value": null,
        "type": "",
        "length": "",
        "mandatory": true,
        "staticHeader": true
      },
      {
        "xmlTag": "/t106:NonArmsLengthWithNonResidentTransactionSlip",
        "info": "Section header",
        "value": null,
        "type": "",
        "length": "",
        "mandatory": true,
        "staticHeader": true
      }
    ]
  }
}