{
  "version": 1,
  "default": "common/tax-abstract.html",
  "name": "NonResident Shareholder Information",
  "inline": true,
  "unique": true,
  "usesReadyToPrint": true,
  "id": "com.caseware.ca.tax.ca.corp.t2s19",
  "js": ["t2s19-formdata.js", "t2s19-calculations.js", "t2s19-diagnostics.js", "t2s19-tables.js"]
}
