{
  "version": 1,
  "default": "common/tax-abstract.html",
  "name": "(T1146) Agreement to Transfer Qualified Expenditures Incurred in Respect of SR&ED Contracts Between Persons Not Dealing at Arm's Length",
  "inline": true,
  "unique": true,
  "usesReadyToPrint": true,
  "id": "com.caseware.ca.tax.ca.corp.t1146",
  "js": [
    "t1146-formdata.js",
    "t1146-calculations.js",
    "t1146-tables.js",
    "t1146-diagnostics.js"
  ]
}
