{
  "version": 1,
  "default": "common/tax-abstract.html",
  "name": "T2A9 - Alberta Scientific Research & Experimental Development (SR&ED) Tax Credit",
  "inline": true,
  "unique": true,
  "usesReadyToPrint": true,
  "id": "com.caseware.ca.tax.ca.corp.t2a9",
  "js": ["t2a9-formdata.js", "t2a9-calculations.js", "t2a9-diagnostics.js", "t2a9-tables.js"]
}
