{
  "version": 1,
  "default": "common/tax-abstract.html",
  "name": "AT237 - Alberta Resource Related Deductions - AT1 SCHEDULE 15",
  "inline": true,
  "unique": true,
  "usesReadyToPrint": true,
  "id": "com.caseware.ca.tax.ca.corp.t2a15",
  "js": ["t2a15-formdata.js", "t2a15-calculations.js", "t2a15-diagnostics.js", "t2a15-tables.js"]
}
