{
  "version": 1,
  "default": "common/tax-abstract.html",
  "name": "Integration Workchart",
  "inline": true,
  "unique": true,
  "usesReadyToPrint": true,
  "id": "com.caseware.ca.tax.ca.corp.integrationWorkchart",
  "js": [
    "integrationWorkchart-formdata.js",
    "integrationWorkchart-calculations.js",
    "integrationWorkchart-tables.js"
  ]
}
