{
  "version": 1,
  "default": "common/tax-abstract.html",
  "name": "Continuity of Reserves",
  "inline": true,
  "unique": true,
  "usesReadyToPrint": true,
  "id": "com.caseware.ca.tax.ca.corp.t2s13",
  "js": ["t2s13-formdata.js", "t2s13-calculations.js", "t2s13-diagnostics.js", "t2s13-tables.js", "t2s13-importcalcs.js"]
}
