{
  "version": 1,
  "default": "common/tax-abstract.html",
  "name": "T2A - Alberta Corporate Income Tax Return",
  "inline": true,
  "unique": true,
  "usesReadyToPrint": true,
  "id": "com.caseware.ca.tax.ca.corp.t2a",
  "js": ["t2a-formdata.js", "t2a-calculations.js", "t2a-diagnostics.js", "t2a-tables.js"]
}
