{
  "version": 1,
  "default": "common/tax-abstract.html",
  "name": "Rental Income Workchart per Property",
  "inline": true,
  "unique": true,
  "usesReadyToPrint": true,
  "id": "com.caseware.ca.tax.ca.corp.t2rentalworkchart",
  "js": ["t2rentalworkchart-formdata.js", "t2rentalworkchart-calculations.js", "t2rentalworkchart-diagnostics.js", "t2rentalworkchart-tables.js"]
}
