{
  "version": 1,
  "default": "common/tax-abstract.html",
  "name": "T2A21 - Alberta Calculation Of Current Year Loss And Continuity Of Losses",
  "inline": true,
  "unique": true,
  "usesReadyToPrint": true,
  "id": "com.caseware.ca.tax.ca.corp.t2a21",
  "js": ["t2a21-formdata.js", "t2a21-calculations.js", "t2a21-diagnostics.js", "t2a21-tables.js"]
}
