{
  "version": 1,
  "default": "common/tax-abstract.html",
  "name": "Foreign Advertising Expenses Workchart Detailed",
  "inline": true,
  "unique": true,
  "usesReadyToPrint": true,
  "id": "com.caseware.ca.tax.ca.corp.advertisingWorkchart",
  "js": ["advertisingWorkchart-formdata.js", "advertisingWorkchart-calculations.js", "advertisingWorkchart-diagnostics.js", "advertisingWorkchart-tables.js", "advertisingWorkchart-importcalcs.js"]
}
