{
  "version": 1,
  "default": "common/tax-abstract.html",
  "name": "Engagement Profile",
  "inline": true,
  "unique": true,
  "usesReadyToPrint": true,
  "id": "com.caseware.ca.tax.ca.corp.engagementProfile",
  "js": ["engagementProfile-formdata.js", "engagementProfile-calculations.js", "engagementProfile-diagnostics.js", "engagementProfile-tables.js"]
}
