{
 "version": 1,
 "default": "common/tax-abstract.html",
 "name": "Nova Scotia Manufacturing and Processing Investment Tax Credit",
 "inline": true,
 "unique": true,
 "usesReadyToPrint": true,
 "id": "com.caseware.ca.tax.ca.corp.t2s344",
 "js": ["t2s344-formdata.js", "t2s344-calculations.js", "t2s344-diagnostics.js", "t2s344-tables.js"]
}
